<?xml version="1.0" encoding="utf-8"?>
<!-- Generator: Adobe Illustrator 25.2.0, SVG Export Plug-In . SVG Version: 6.00 Build 0)  -->
<svg version="1.1" id="Capa_1" xmlns="http://www.w3.org/2000/svg" xmlns:xlink="http://www.w3.org/1999/xlink" x="0px" y="0px"
	 viewBox="0 0 43.6 43.2" style="enable-background:new 0 0 43.6 43.2;" xml:space="preserve">
<style type="text/css">
	.st0{fill:#FF3E03;}
	.st1{fill:#1C252C;}
</style>
<g>
	<path class="st0" d="M26,4.2c0-0.8,0.3-1.5,0.8-2c0.5-0.5,1.2-0.8,2-0.8c0.9,0,1.6,0.3,2.2,0.8c0.6,0.5,0.9,1.2,0.9,1.8
		c0,0.5-0.1,1-0.3,1.5c-0.2,0.5-0.6,0.9-1.1,1.2c-0.5,0.3-1,0.5-1.5,0.5c-0.7,0-1.4-0.3-2-0.9C26.3,5.8,26,5.1,26,4.2"/>
	<path class="st0" d="M31.3,11.3c0-0.8,0.3-1.5,0.8-2c0.5-0.5,1.2-0.8,2-0.8c0.9,0,1.6,0.3,2.2,0.8c0.6,0.5,0.9,1.2,0.9,1.8
		c0,0.5-0.1,1-0.3,1.5c-0.2,0.5-0.6,0.9-1.1,1.2c-0.5,0.3-1,0.5-1.5,0.5c-0.7,0-1.4-0.3-2-0.9C31.6,12.9,31.3,12.2,31.3,11.3"/>
	<path class="st1" d="M7.8,43.5c-0.2,0-0.4,0-0.6-0.1c-0.2,0-0.4-0.2-0.4-0.4c0-0.2,0.1-0.4,0.3-0.5c0.2-0.1,0.5-0.2,0.7-0.3
		c0.5-0.2,0.9-0.3,1.4-0.5c0.4-0.2,0.7-0.6,0.7-1.2V16.8c0-0.2-0.1-0.6-0.2-1.1c-0.1-0.5-0.4-1-0.7-1.4c-0.3-0.5-0.7-0.7-1.3-0.8
		c-0.1,0-0.2-0.1-0.3-0.2c-0.1-0.1-0.1-0.2-0.1-0.4c0-0.2,0-0.3,0.1-0.4c0.1-0.1,0.1-0.2,0.2-0.2c1.2-0.3,2.2-0.6,3-0.9
		c0.8-0.3,1.6-0.6,2.4-1c0,0,0,0,0,0c0,0,0,0,0,0c0.1,0,0.1,0,0.2,0.1c0.1,0.1,0.1,0.2,0.1,0.3c0,0.3,0,0.7-0.1,1.3
		c-0.1,0.6-0.1,1.1-0.1,1.5c0,0.2,0,0.4,0,0.4c0.3-0.3,0.9-0.7,1.7-1.2c0.8-0.5,1.8-0.9,2.8-1.3c1.1-0.4,2.1-0.6,3-0.6
		c1.6,0,3,0.4,4.1,1.3c1.1,0.9,2,2,2.6,3.3c0.6,1.4,0.9,2.8,0.9,4.2c0,1.4-0.3,2.8-0.8,4.1c-0.5,1.3-1.3,2.5-2.2,3.6
		c-1,1.1-2.1,1.9-3.4,2.5c-1.3,0.6-2.6,1-4.1,1c-0.4,0-1-0.1-1.6-0.2c-0.6-0.1-1.2-0.3-1.8-0.5c-0.6-0.2-1-0.5-1.3-0.7
		c0,0-0.1,0.2-0.1,0.5c0,0.4-0.1,0.7-0.1,1.1c0,0.4,0,0.6,0,0.7v8.7c0,0.4,0.2,0.7,0.5,1c0.3,0.2,0.7,0.4,1.1,0.5
		c0.4,0.1,0.8,0.2,1.1,0.3c0.2,0.1,0.5,0.2,0.7,0.3c0.2,0.1,0.3,0.3,0.3,0.5c0,0.2-0.1,0.3-0.4,0.4c-0.2,0-0.5,0.1-0.7,0.1
		c-0.9,0-1.7,0-2.3-0.1c-0.6-0.1-1.3-0.1-2.1-0.1c-0.5,0-1,0-1.3,0c-0.3,0-0.7,0.1-1,0.1C8.9,43.5,8.4,43.5,7.8,43.5 M18.7,29.4
		c0.5,0,1-0.1,1.7-0.4c0.7-0.3,1.3-0.7,2-1.4c0.7-0.6,1.2-1.5,1.7-2.5c0.5-1.1,0.7-2.4,0.7-3.9c0-1.8-0.2-3.2-0.7-4.3
		c-0.5-1.1-1-1.9-1.7-2.5c-0.7-0.6-1.4-0.9-2.1-1.1C19.6,13.1,19,13,18.5,13c-0.7,0-1.5,0.2-2.3,0.5c-0.8,0.3-1.5,0.7-2,1
		c-0.5,0.4-0.8,0.7-0.8,0.9c0,0.7,0,1.4,0,2.1c0,0.7,0,1.4,0,2c0,0.7,0,1.2,0,1.7c0,0.5,0,0.9,0,1.2c0,1.2,0.3,2.4,0.9,3.5
		c0.6,1.1,1.3,1.9,2.1,2.5C17,29.1,17.9,29.4,18.7,29.4"/>
</g>
</svg>
